%YAML 1.1
%TAG !u! tag:unity3d.com,2011:
--- !u!114 &11400000
MonoBehaviour:
  m_ObjectHideFlags: 0
  m_CorrespondingSourceObject: {fileID: 0}
  m_PrefabInstance: {fileID: 0}
  m_PrefabAsset: {fileID: 0}
  m_GameObject: {fileID: 0}
  m_Enabled: 1
  m_EditorHideFlags: 0
  m_Script: {fileID: 11500000, guid: aed57648ca296fb41895c6146892be5a, type: 3}
  m_Name: ObjectPool
  m_EditorClassIdentifier: 
  serializationData:
    SerializedFormat: 2
    SerializedBytes: 
    ReferencedUnityObjects:
    - {fileID: 3956390750729090919, guid: 316e2e153769f6541b1d48d580cec72d, type: 3}
    - {fileID: 0}
    - {fileID: 0}
    - {fileID: 0}
    - {fileID: 0}
    - {fileID: 0}
    - {fileID: 0}
    - {fileID: 0}
    SerializedBytesString: 
    Prefab: {fileID: 0}
    PrefabModificationsReferencedUnityObjects: []
    PrefabModifications: []
    SerializationNodes:
    - Name: prefabs
      Entry: 7
      Data: 0|System.Collections.Generic.Dictionary`2[[PrefabID, Assembly-CSharp],[PoolableObject,
        Assembly-CSharp]], mscorlib
    - Name: comparer
      Entry: 7
      Data: 1|System.Collections.Generic.EnumEqualityComparer`1[[PrefabID, Assembly-CSharp]],
        mscorlib
    - Name: 
      Entry: 12
      Data: 0
    - Name: 
      Entry: 13
      Data: 
    - Name: 
      Entry: 8
      Data: 
    - Name: 
      Entry: 12
      Data: 1
    - Name: 
      Entry: 7
      Data: 
    - Name: $k
      Entry: 3
      Data: 1
    - Name: $v
      Entry: 10
      Data: 0
    - Name: 
      Entry: 8
      Data: 
    - Name: 
      Entry: 13
      Data: 
    - Name: 
      Entry: 8
      Data: 
    - Name: pool
      Entry: 7
      Data: 2|System.Collections.Generic.Dictionary`2[[PrefabID, Assembly-CSharp],[System.Collections.Generic.Stack`1[[PoolableObject,
        Assembly-CSharp]], mscorlib]], mscorlib
    - Name: comparer
      Entry: 7
      Data: 3|System.Collections.Generic.EnumEqualityComparer`1[[PrefabID, Assembly-CSharp]],
        mscorlib
    - Name: 
      Entry: 12
      Data: 0
    - Name: 
      Entry: 13
      Data: 
    - Name: 
      Entry: 8
      Data: 
    - Name: 
      Entry: 12
      Data: 1
    - Name: 
      Entry: 7
      Data: 
    - Name: $k
      Entry: 3
      Data: 1
    - Name: $v
      Entry: 7
      Data: 4|System.Collections.Generic.Stack`1[[PoolableObject, Assembly-CSharp]],
        mscorlib
    - Name: 
      Entry: 12
      Data: 0
    - Name: 
      Entry: 13
      Data: 
    - Name: 
      Entry: 8
      Data: 
    - Name: 
      Entry: 8
      Data: 
    - Name: 
      Entry: 13
      Data: 
    - Name: 
      Entry: 8
      Data: 
    - Name: active
      Entry: 7
      Data: 5|System.Collections.Generic.Dictionary`2[[PrefabID, Assembly-CSharp],[System.Collections.Generic.Stack`1[[PoolableObject,
        Assembly-CSharp]], mscorlib]], mscorlib
    - Name: comparer
      Entry: 9
      Data: 3
    - Name: 
      Entry: 12
      Data: 1
    - Name: 
      Entry: 7
      Data: 
    - Name: $k
      Entry: 3
      Data: 1
    - Name: $v
      Entry: 7
      Data: 6|System.Collections.Generic.Stack`1[[PoolableObject, Assembly-CSharp]],
        mscorlib
    - Name: 
      Entry: 12
      Data: 7
    - Name: 
      Entry: 10
      Data: 1
    - Name: 
      Entry: 10
      Data: 2
    - Name: 
      Entry: 10
      Data: 3
    - Name: 
      Entry: 10
      Data: 4
    - Name: 
      Entry: 10
      Data: 5
    - Name: 
      Entry: 10
      Data: 6
    - Name: 
      Entry: 10
      Data: 7
    - Name: 
      Entry: 13
      Data: 
    - Name: 
      Entry: 8
      Data: 
    - Name: 
      Entry: 8
      Data: 
    - Name: 
      Entry: 13
      Data: 
    - Name: 
      Entry: 8
      Data: 
    - Name: count
      Entry: 7
      Data: 7|System.Collections.Generic.Dictionary`2[[PrefabID, Assembly-CSharp],[System.Int32,
        mscorlib]], mscorlib
    - Name: comparer
      Entry: 9
      Data: 3
    - Name: 
      Entry: 12
      Data: 1
    - Name: 
      Entry: 7
      Data: 
    - Name: $k
      Entry: 3
      Data: 1
    - Name: $v
      Entry: 3
      Data: 7
    - Name: 
      Entry: 8
      Data: 
    - Name: 
      Entry: 13
      Data: 
    - Name: 
      Entry: 8
      Data: 
  debug: 1
